{
  "contacts": [
    {
      "name": "frwerwer",
      "selected": false,
      "added": "2017-05-17T18:37:24.765Z",
      "_id": 7
    },
    {
      "name": "Jaak",
      "selected": false,
      "added": "2017-05-17T18:47:20.045Z",
      "_id": 19
    },
    {
      "name": "Tiit",
      "phone": "aa",
      "selected": false,
      "added": "2017-05-17T18:47:20.389Z",
      "_id": 20
    }
  ]
}