{
  "contacts": [
    {
      "name": "1491129533635",
      "_id": 5
    },
    {
      "name": "1491145703618",
      "phone": "1491145703619",
      "_id": 6
    },
    {
      "name": "1491145704200",
      "_id": 7
    },
    {
      "name": "1491145706011",
      "_id": 8
    },
    {
      "name": "1491145707041",
      "_id": 9
    },
    {
      "name": "Jaana",
      "_id": 10
    },
    {
      "name": "Jaak",
      "_id": 11
    },
    {
      "name": "Tiit",
      "phone": "aa",
      "_id": 12
    },
    {
      "name": "Tiina",
      "_id": 13
    }
  ]
}